310,372,328,412,m_nipple
78,1278,138,1328,f_nipple
610,1282,646,1346,f_nipple
48,1186,196,1336,boob
186,1176,310,1320,boob
468,1196,648,1388,boob
846,250,880,320,boob
924,1072,972,1096,boob
970,1070,988,1092,boob
570,616,598,754,boob
994,1124,1092,1206,ass
