1068,1372,1548,1698,pussy
1170,1560,1773,2898,penis
1173,2891,1938,2999,bursa
997,900,1121,986,f_nipple
1740,1008,1822,1091,f_nipple
840,896,1365,1207,boob
1473,1012,1818,1230,boob
420,1350,2388,2370,ass
