1032,1102,1052,1118,m_nipple
838,1092,866,1112,m_nipple
1006,452,1040,474,m_nipple
848,396,866,420,m_nipple
406,286,424,302,m_nipple
280,290,296,304,m_nipple
4,1346,54,1400,boob
76,458,96,476,m_nipple
