336,617,354,676,bursa
288,632,338,750,penis
747,591,828,674,penis
670,261,687,279,f_nipple
379,397,397,416,f_nipple
407,407,424,427,m_nipple
339,382,397,449,boob
664,231,709,289,boob
437,563,480,679,ass
605,548,664,647,ass
240,581,286,676,ass
