362,722,399,775,f_nipple
453,659,479,708,f_nipple
833,759,862,784,f_nipple
547,171,700,588,penis
647,189,670,364,bursa
269,656,399,786,boob
379,581,477,768,boob
836,586,894,719,boob
833,628,913,785,boob
