324,801,427,892,pussy
334,851,425,1121,penis
299,1017,440,1144,bursa
267,1120,520,1279,ass
220,787,526,961,ass
344,585,456,684,boob
512,542,600,635,boob
468,564,515,652,boob
512,572,537,608,f_nipple
419,596,454,633,f_nipple
257,569,307,657,boob
760,737,851,883,ass
