177,241,190,260,anal
189,213,235,250,pussy
166,187,221,317,ass
141,145,231,199,penis
83,175,124,207,penis
274,115,349,178,boob
316,155,403,235,boob
348,191,382,213,f_nipple
277,126,298,148,f_nipple
