248,340,274,356,m_nipple
14,462,106,544,boob
104,450,178,530,boob
146,470,178,512,f_nipple
38,480,74,522,f_nipple
540,424,600,484,boob
570,440,636,526,boob
586,462,612,488,f_nipple
836,626,948,792,penis
384,596,410,686,bursa
330,626,344,672,bursa
340,580,400,796,penis
838,696,866,752,bursa
1074,666,1138,734,boob
1086,690,1180,794,boob
1084,718,1108,760,f_nipple
40,1110,100,1162,boob
2,1130,56,1208,boob
12,1170,50,1200,f_nipple
138,1232,226,1322,boob
210,1222,288,1280,boob
262,1250,288,1282,f_nipple
164,1266,202,1304,f_nipple
542,986,618,1062,boob
614,988,660,1036,boob
844,1032,920,1096,boob
916,1030,966,1098,boob
1102,940,1154,996,boob
1122,948,1182,1006,boob
1122,952,1142,982,f_nipple
1098,948,1122,968,f_nipple
526,1478,592,1514,boob
588,1480,646,1514,boob
750,1296,778,1332,boob
726,1300,750,1334,boob
546,984,572,1010,f_nipple
