761,1154,838,1285,bursa
782,1086,1163,1199,penis
975,1573,1065,1637,pussy
827,977,954,1099,boob
999,941,1163,1092,boob
1067,995,1120,1040,f_nipple
845,1004,895,1054,f_nipple
730,637,748,653,m_nipple
637,562,671,596,m_nipple
