124,326,176,366,boob
160,322,212,360,boob
444,338,460,352,m_nipple
352,330,368,346,m_nipple
502,532,666,674,boob
634,514,686,600,boob
894,186,922,204,m_nipple
1150,254,1186,332,boob
1098,258,1118,276,f_nipple
1078,256,1098,278,f_nipple
84,950,114,966,m_nipple
256,1046,368,1156,boob
180,1050,278,1146,boob
268,1074,314,1118,f_nipple
180,1068,212,1108,f_nipple
680,976,804,1084,boob
606,982,662,1078,boob
698,988,750,1040,pussy
606,984,642,1016,pussy
540,852,572,874,m_nipple
644,960,710,1112,penis
604,1136,702,1218,penis
308,1220,362,1288,ass
756,1184,808,1278,ass
954,1200,978,1216,m_nipple
134,1248,250,1318,penis
