56,176,170,266,boob
102,194,142,230,f_nipple
128,148,212,224,boob
182,154,212,182,f_nipple
156,50,216,130,boob
104,504,274,628,ass
254,144,292,242,boob
364,142,416,236,boob
318,138,340,178,boob
332,138,358,184,boob
432,60,464,112,boob
406,66,436,112,boob
522,66,578,146,boob
522,94,542,126,f_nipple
560,196,656,298,boob
646,200,760,302,boob
686,228,724,272,f_nipple
560,218,604,268,f_nipple
348,486,424,550,boob
714,576,772,662,boob
730,514,770,578,boob
780,290,808,364,boob
778,312,804,350,f_nipple
840,386,936,482,boob
884,424,922,464,f_nipple
906,376,988,466,boob
962,410,990,440,f_nipple
962,282,1100,502,penis
1038,192,1066,210,m_nipple
1040,338,1094,418,boob
90,812,216,930,boob
186,808,286,910,boob
102,822,166,868,f_nipple
246,808,286,842,f_nipple
162,1108,224,1208,penis
128,1360,224,1476,bursa
184,1346,244,1402,penis
288,1328,426,1486,ass
916,1224,1054,1344,ass
802,916,872,994,boob
860,906,942,990,boob
802,950,830,984,f_nipple
884,950,922,986,f_nipple
714,806,764,890,boob
758,806,830,882,boob
934,828,994,918,boob
1040,812,1076,868,boob
56,928,94,988,boob
62,944,84,966,f_nipple
