209,270,242,325,bursa
226,274,296,332,penis
224,98,245,114,m_nipple
189,398,247,462,boob
298,387,368,451,boob
334,391,352,406,f_nipple
198,404,222,423,f_nipple
244,541,295,607,pussy
262,612,288,636,anal
192,551,368,653,ass
