120,18,210,165,boob
223,2,365,149,boob
15,386,164,553,boob
181,405,348,609,boob
243,407,287,458,f_nipple
269,436,330,497,f_nipple
67,387,112,440,f_nipple
34,406,51,454,f_nipple
122,100,170,160,f_nipple
261,64,329,145,f_nipple
272,314,308,335,pussy
