421,319,468,362,boob
472,330,510,372,boob
443,328,457,342,f_nipple
501,342,509,353,f_nipple
359,274,398,324,boob
341,273,349,312,boob
308,273,317,310,boob
121,137,166,181,boob
73,136,119,179,boob
188,102,225,144,boob
144,101,185,131,boob
79,142,94,153,f_nipple
151,145,162,156,f_nipple
