644,312,742,448,ass
552,147,577,180,boob
164,322,222,392,boob
163,351,176,370,f_nipple
327,283,376,324,boob
375,292,402,324,boob
394,300,403,317,f_nipple
345,294,361,308,f_nipple
483,295,524,349,boob
484,321,493,338,f_nipple
