232,292,249,304,boob
235,297,250,315,boob
388,163,429,209,boob
424,161,482,215,boob
134,232,152,246,boob
150,233,164,249,boob
442,180,455,191,f_nipple
387,174,398,187,f_nipple
136,237,142,242,f_nipple
156,241,163,247,f_nipple
280,299,295,313,boob
279,304,286,310,f_nipple
299,325,313,345,ass
284,321,294,340,ass
