2086,473,2728,1885,penis
3019,1749,3272,1859,f_nipple
1069,1814,1607,1944,f_nipple
349,1814,1963,3240,boob
1334,2838,2430,3440,boob
187,3071,816,3455,boob
2585,1749,3933,3188,boob
2494,2514,3551,3447,boob
