569,518,614,580,anal
526,587,622,686,pussy
328,408,806,657,ass
771,934,908,1168,dildo
392,944,480,1158,dildo
289,1040,331,1123,dildo
491,945,576,1142,penis
644,937,726,1142,penis
716,1056,809,1140,bursa
536,1102,668,1216,bursa
