126,1268,591,2293,dildo
631,1258,1020,2389,dildo
1172,1040,1637,2268,dildo
1677,1061,2041,2430,penis
1647,2000,1722,2248,bursa
1965,1995,2026,2223,bursa
2399,2081,2490,2339,bursa
2122,929,2470,2399,penis
2475,1970,2521,2223,bursa
2834,1904,3001,2349,bursa
2490,889,2879,2404,penis
3107,65,3723,2450,dildo
