862,2178,1061,2362,penis
795,2430,1012,2625,bursa
1241,240,1518,401,penis
1297,375,1391,570,bursa
423,637,843,978,boob
888,502,1275,896,boob
1136,611,1241,716,f_nipple
532,738,648,843,f_nipple
888,2126,933,2223,pussy
