680,421,783,549,anal
788,477,911,584,pussy
728,162,780,252,penis
739,129,778,175,anal
695,67,940,234,ass
477,133,535,184,anal
536,145,608,195,pussy
421,32,623,253,ass
186,153,270,193,pussy
81,37,307,250,ass
160,394,193,481,pussy
39,318,290,481,ass
154,642,238,682,pussy
775,197,815,252,dildo
60,514,241,757,ass
138,372,183,394,anal
181,136,199,188,anal
134,642,154,691,anal
520,279,944,736,ass
486,651,866,765,dildo
2,643,145,765,penis
