86,530,110,568,f_nipple
196,508,224,542,f_nipple
832,434,864,466,f_nipple
968,450,1000,482,f_nipple
1140,498,1168,532,f_nipple
1248,492,1274,528,f_nipple
980,194,1004,220,m_nipple
1370,292,1392,318,m_nipple
1108,296,1132,316,m_nipple
176,482,270,562,boob
84,510,152,582,boob
822,404,902,470,boob
928,410,1008,484,boob
1126,460,1212,538,boob
1214,446,1314,534,boob
208,792,286,868,hair
682,608,720,674,hair
884,686,914,736,hair
1180,688,1276,742,hair
