108,451,132,478,f_nipple
268,464,300,495,f_nipple
666,397,698,430,f_nipple
105,408,211,513,boob
223,433,312,531,boob
510,444,534,477,f_nipple
508,412,603,511,boob
600,364,714,469,boob
74,660,96,698,hair
805,613,834,645,hair
