227,420,268,475,pussy
623,391,654,435,pussy
239,477,260,501,anal
629,426,647,443,anal
525,257,543,271,f_nipple
610,221,625,235,f_nipple
163,305,183,323,f_nipple
263,293,277,313,f_nipple
137,290,211,347,boob
240,281,280,338,boob
516,246,551,290,boob
593,216,632,263,boob
62,336,77,347,m_nipple
385,310,402,322,m_nipple
287,327,301,341,m_nipple
728,291,745,302,m_nipple
951,242,966,258,m_nipple
177,440,316,526,ass
578,397,685,455,ass
832,20,960,61,pussy
913,3,999,52,penis
