113,139,123,152,f_nipple
157,134,172,148,f_nipple
377,145,395,160,f_nipple
327,130,337,146,f_nipple
141,234,159,248,pussy
91,252,109,269,pussy
327,123,369,168,boob
361,131,407,181,boob
139,113,180,162,boob
109,123,135,172,boob
92,122,122,164,boob
457,161,478,202,ass
