266,665,362,751,boob
377,661,448,753,boob
411,714,516,825,boob
516,710,612,832,boob
544,386,640,460,boob
644,388,734,460,boob
716,460,783,531,boob
806,441,896,527,boob
311,702,352,740,f_nipple
424,699,448,729,f_nipple
416,761,458,800,f_nipple
565,768,601,800,f_nipple
563,418,588,443,f_nipple
702,420,723,439,f_nipple
714,480,734,512,f_nipple
847,482,872,507,f_nipple
