220,1571,248,1610,f_nipple
373,1536,422,1579,f_nipple
849,1489,896,1543,f_nipple
1113,1487,1164,1548,f_nipple
1574,1454,1612,1500,f_nipple
1797,1454,1835,1502,f_nipple
1868,801,1953,1024,f_ass
1556,437,1743,545,boob
1029,1413,1195,1597,boob
842,1454,977,1597,boob
327,1500,488,1620,boob
222,1533,309,1653,boob
1564,1423,1684,1548,boob
1722,1410,1856,1548,boob
1280,785,1344,993,boob
1218,844,1285,1016,boob
1482,445,1559,537,boob
