259,281,274,300,f_nipple
345,297,363,317,f_nipple
245,246,260,264,f_nipple
418,257,433,272,f_nipple
301,417,323,437,pussy
312,254,368,321,boob
260,245,310,309,boob
221,231,261,286,boob
410,245,450,284,boob
