1198,673,1269,729,f_nipple
1579,616,1640,675,f_nipple
184,1443,215,1477,f_nipple
348,1425,394,1466,f_nipple
350,1963,407,2019,pussy
1308,1477,1410,1610,pussy
1484,578,1656,760,boob
1134,650,1364,801,boob
302,1413,427,1518,boob
192,1425,261,1523,boob
