43,641,136,758,boob
91,613,139,699,boob
131,673,201,806,boob
206,669,329,804,boob
383,623,469,726,boob
506,651,598,741,boob
598,604,679,688,boob
694,584,774,698,boob
99,684,124,711,f_nipple
393,659,426,698,f_nipple
573,693,591,713,f_nipple
706,649,746,693,f_nipple
596,643,609,673,f_nipple
