930,1158,966,1199,f_nipple
1158,1158,1199,1203,f_nipple
1652,1183,1693,1232,f_nipple
811,1101,848,1138,f_nipple
1595,1158,1709,1272,boob
1085,1134,1211,1256,boob
913,1130,1040,1264,boob
762,1073,844,1224,boob
