756,1404,838,1524,f_nipple
1411,1131,1458,1197,f_nipple
1396,1072,1446,1131,m_nipple
569,2117,663,2191,pussy
1205,1895,1427,1989,penis
1365,1969,1454,2133,bursa
514,1197,842,1567,boob
768,1131,920,1521,boob
1298,1053,1454,1353,boob
713,1911,920,2273,ass
