14,342,35,364,f_nipple
137,342,159,360,f_nipple
357,355,382,382,f_nipple
536,361,560,385,f_nipple
651,346,666,368,f_nipple
70,572,107,596,pussy
333,593,377,622,pussy
4,316,80,395,boob
94,318,172,389,boob
267,344,313,413,boob
318,318,390,404,boob
502,343,584,405,boob
601,329,667,383,boob
