155,258,182,279,boob
187,256,205,271,boob
285,240,310,259,boob
539,261,574,288,boob
522,257,539,289,boob
339,262,360,296,boob
360,267,381,295,boob
250,243,280,261,boob
473,234,498,255,boob
386,193,406,218,boob
365,201,387,217,boob
