324,259,391,310,boob
396,251,431,291,boob
288,111,317,142,boob
261,111,289,143,boob
537,95,545,103,m_nipple
764,124,774,133,m_nipple
580,189,613,213,boob
484,151,513,184,boob
707,178,746,216,boob
663,174,702,214,boob
459,153,482,183,boob
