364,1328,427,1395,f_nipple
703,1290,781,1365,f_nipple
1461,509,1833,840,pussy
2298,1335,2421,1461,pussy
2351,1287,2399,1331,anal
1249,2038,1305,2105,f_nipple
539,2001,729,2105,pussy
851,286,982,360,f_nipple
1313,226,1406,267,f_nipple
855,282,1134,639,boob
1171,226,1454,345,boob
613,1220,837,1450,boob
357,1272,569,1495,boob
1517,1934,1547,1993,f_nipple
1398,1841,1551,2057,boob
1235,1971,1376,2168,boob
2079,1145,2652,1454,ass
