253,511,304,556,pussy
260,540,298,611,penis
241,212,269,238,f_nipple
186,55,224,90,f_nipple
382,76,428,113,f_nipple
195,519,346,575,ass
240,591,261,610,bursa
296,592,316,620,bursa
233,215,304,267,boob
312,212,377,281,boob
359,224,375,246,f_nipple
162,2,283,90,boob
329,2,471,110,boob
