81,372,112,394,f_nipple
273,358,307,393,f_nipple
417,352,447,385,f_nipple
550,348,579,385,f_nipple
597,339,621,369,f_nipple
709,351,741,382,f_nipple
954,403,988,447,f_nipple
1131,400,1153,435,f_nipple
46,333,189,411,boob
213,334,312,442,boob
412,325,505,420,boob
510,298,591,430,boob
600,298,684,390,boob
681,313,748,399,boob
949,363,1050,472,boob
1065,358,1152,474,boob
