38,392,74,430,f_nipple
212,379,234,417,f_nipple
292,388,319,415,f_nipple
405,380,428,404,f_nipple
571,346,608,392,f_nipple
710,418,746,452,f_nipple
15,352,123,450,boob
157,338,234,428,boob
290,337,356,415,boob
364,330,428,405,boob
541,313,650,414,boob
651,316,728,451,boob
687,391,820,506,boob
