130,472,254,587,boob
257,433,331,544,boob
348,430,459,540,boob
465,422,532,514,boob
527,413,554,476,boob
556,404,610,468,boob
596,439,609,459,f_nipple
605,417,628,442,f_nipple
400,492,435,528,f_nipple
181,545,222,583,f_nipple
593,389,650,453,boob
651,382,711,455,boob
683,426,709,453,f_nipple
796,354,851,417,boob
843,366,876,418,boob
816,396,834,416,f_nipple
723,325,753,369,boob
