120,592,270,707,boob
285,554,371,661,boob
373,579,456,648,boob
471,584,552,630,boob
617,556,671,619,boob
697,506,776,584,boob
803,431,883,504,boob
905,396,993,473,boob
1004,513,1081,594,boob
1089,515,1196,613,boob
1234,402,1311,496,boob
1225,487,1301,569,boob
1307,496,1424,602,boob
1171,385,1236,442,boob
197,648,237,688,f_nipple
352,594,371,623,f_nipple
379,592,412,630,f_nipple
732,529,759,554,f_nipple
814,452,843,479,f_nipple
962,421,989,446,f_nipple
1006,540,1033,571,f_nipple
1131,559,1165,590,f_nipple
1223,519,1244,544,f_nipple
534,584,550,604,f_nipple
490,836,538,876,pussy
914,707,960,736,pussy
1104,774,1160,797,pussy
