305,365,320,375,f_nipple
318,412,334,426,f_nipple
424,260,439,281,f_nipple
397,250,406,265,f_nipple
289,396,355,449,boob
273,367,340,395,boob
424,237,463,297,boob
400,228,426,283,boob
523,357,550,440,ass
