296,254,325,286,f_nipple
221,252,235,278,f_nipple
195,220,207,241,f_nipple
129,206,149,228,f_nipple
159,403,184,430,pussy
254,416,274,435,pussy
98,183,156,234,boob
168,198,208,250,boob
221,235,272,289,boob
277,242,336,294,boob
