330,229,352,248,f_nipple
469,235,490,253,f_nipple
567,399,606,437,f_nipple
721,396,762,437,f_nipple
64,174,138,260,boob
141,169,230,260,boob
299,206,404,292,boob
411,199,519,292,boob
546,294,666,449,boob
669,278,798,443,boob
