1243,456,1392,644,f_ass
1691,1034,1819,1184,penis
1697,1527,1792,1553,penis
229,993,325,1136,penis
268,1461,369,1565,penis
459,2156,560,2329,pussy
486,2329,521,2374,anal
360,1947,492,2016,boob
527,1941,656,2031,boob
375,1965,417,1995,f_nipple
590,1968,638,2004,f_nipple
274,2201,691,2383,ass
1601,325,1643,399,boob
