144,443,166,467,boob
167,442,187,464,boob
250,376,270,399,boob
268,368,280,384,boob
271,364,294,392,boob
315,422,339,441,boob
334,424,360,447,boob
229,283,248,297,boob
249,289,272,299,boob
232,283,240,288,f_nipple
273,377,279,384,f_nipple
347,433,353,439,f_nipple
315,425,322,432,f_nipple
149,446,157,454,f_nipple
256,373,274,393,f_nipple
