111,173,122,188,f_nipple
178,241,193,256,f_nipple
269,250,292,267,f_nipple
403,198,418,214,f_nipple
562,247,575,261,f_nipple
214,432,245,452,pussy
362,324,383,343,pussy
526,392,545,419,pussy
110,164,146,196,boob
173,222,235,273,boob
239,222,301,278,boob
337,183,361,215,boob
388,186,430,221,boob
559,223,608,271,boob
