798,298,818,326,f_nipple
823,281,843,306,f_nipple
447,387,521,453,boob
525,378,593,416,boob
628,336,677,401,boob
665,315,693,347,boob
780,272,818,338,boob
812,266,840,315,boob
880,271,951,308,boob
836,273,883,327,boob
