102,228,112,240,m_nipple
39,220,49,232,m_nipple
730,289,740,298,m_nipple
459,307,468,315,m_nipple
506,322,512,329,m_nipple
148,299,153,306,m_nipple
335,388,350,400,f_nipple
357,387,366,396,f_nipple
303,370,356,411,boob
335,372,369,409,boob
