930,344,942,361,m_nipple
759,198,769,206,m_nipple
160,242,207,286,boob
272,258,318,296,boob
344,224,381,276,boob
379,230,433,282,boob
201,100,242,138,boob
252,90,290,123,boob
576,244,622,280,boob
514,240,564,276,boob
