188,794,376,1017,f_nipple
1344,1017,1524,1255,f_nipple
1543,314,1678,587,f_nipple
2826,395,3014,625,f_nipple
1954,2584,2296,2730,pussy
53,533,760,1171,boob
925,637,1528,1401,boob
1543,180,2115,871,boob
2280,111,3048,902,boob
