409,582,457,641,f_nipple
577,611,613,664,f_nipple
772,546,799,575,f_nipple
885,579,930,619,f_nipple
974,963,1047,1161,ass
329,522,488,677,boob
493,544,619,710,boob
777,508,890,642,boob
843,551,1038,682,boob
