207,241,224,261,f_nipple
340,263,364,286,f_nipple
109,224,159,279,boob
157,206,182,248,boob
168,210,205,262,boob
196,219,261,278,boob
314,244,382,305,boob
142,245,157,264,f_nipple
267,265,308,320,boob
