79,420,207,515,ass
228,204,243,219,f_nipple
277,218,293,232,f_nipple
530,267,549,288,f_nipple
555,421,708,532,ass
227,192,274,234,boob
273,197,322,245,boob
498,244,570,309,boob
574,227,594,274,boob
574,239,584,258,f_nipple
