401,465,415,483,f_nipple
854,409,871,432,f_nipple
935,419,948,440,f_nipple
718,419,734,443,f_nipple
923,294,936,310,m_nipple
1009,647,1226,797,ass
555,650,667,764,ass
241,696,373,812,ass
0,746,111,869,ass
381,447,415,521,boob
698,387,734,470,boob
825,389,889,465,boob
900,399,948,463,boob
1232,399,1259,466,boob
463,461,494,504,boob
440,460,465,506,boob
