394,210,410,224,f_nipple
468,213,487,229,f_nipple
523,198,539,211,f_nipple
511,208,522,219,f_nipple
374,370,398,394,pussy
255,592,321,726,ass
471,580,483,594,f_nipple
616,342,657,436,ass
464,247,475,261,f_nipple
394,191,436,243,boob
445,196,493,245,boob
465,230,509,285,boob
512,210,527,244,boob
506,233,521,266,boob
522,179,583,243,boob
439,547,489,598,boob
