1418,2753,1510,2925,anal
1351,2908,1586,3142,pussy
502,2343,2477,3239,ass
2163,1703,2314,1799,pussy
1908,883,2155,1083,boob
2188,770,2393,975,boob
2326,820,2393,929,f_nipple
2008,941,2105,1029,f_nipple
